openjdk version "11.0.13" 2021-10-19
OpenJDK Runtime Environment (build 11.0.13+8-post-Debian-1deb11u1)
OpenJDK 64-Bit Server VM (build 11.0.13+8-post-Debian-1deb11u1, mixed mode, sharing)
Running 'java -Xms512m -Xmx512m main1D_cb'
|Bench| WARMUP 100 iterations [len = 65536]---
|Bench| WARMUP Start: 1641755311 
|Bench| WARMUP Stop: 1641755317 
|Bench| BENCHMARK 10 iterations [4194304]---
|Bench| BENCHMARK Start: 1641755320 
case = 0 
M = 4194304 
dx = 2.3841863594499490e-07 
dt = 0.10000000000000000 
eps = 1.0000000000000000e-09 
k=0 : RMS U = 0.045419274131920110
k=1 : RMS U = 0.022806370010027978
k=2 : RMS U = 0.011477009394214020
k=3 : RMS U = 0.0057761428803093760
k=4 : RMS U = 0.0029070237990799530
k=5 : RMS U = 0.0014630504643037324
k=6 : RMS U = 0.00073632581665872190
k=7 : RMS U = 0.00037057895241739483
k=8 : RMS U = 0.00018650542583186810
k=9 : RMS U = 9.3864677517016690e-05
k=10 : RMS U = 4.7240329042606890e-05
k=11 : RMS U = 2.3775170240152950e-05
k=12 : RMS U = 1.1965596603487778e-05
k=13 : RMS U = 6.0220599967909860e-06
k=14 : RMS U = 3.0307896925692677e-06
k=15 : RMS U = 1.5253395108420100e-06
k=16 : RMS U = 7.6767473387889450e-07
k=17 : RMS U = 3.8635626374947923e-07
k=18 : RMS U = 1.9444585432654678e-07
k=19 : RMS U = 9.7860942499366040e-08
k=20 : RMS U = 4.9251574949580625e-08
k=21 : RMS U = 2.4787401652849136e-08
k=22 : RMS U = 1.2475028201777867e-08
k=23 : RMS U = 6.2784471594409990e-09
k=24 : RMS U = 3.1598218036194538e-09
k=25 : RMS U = 1.5902840669815077e-09
The simulation has converged in 26 iterations
|Bench| Time (s): 4.708583 
result samples:
u[0] = -1.1920951671438927e-07 
u[419430] = 0.044999924824735230 
u[838860] = 0.079999935436795440 
u[1258290] = 0.10499994630079647 
u[1677720] = 0.11999995391834647 
u[2097150] = 0.12499996426193023 
u[2516580] = 0.11999998521222201 
u[2936010] = 0.10500001951243966 
u[3355440] = 0.080000072351419630 
u[3774870] = 0.045000144025146564 
u[4194300] = 2.3841839751250414e-07 
case = 0 
M = 4194304 
dx = 2.3841863594499490e-07 
dt = 0.10000000000000000 
eps = 1.0000000000000000e-09 
k=0 : RMS U = 0.045419274131920110
k=1 : RMS U = 0.022806370010027978
k=2 : RMS U = 0.011477009394214020
k=3 : RMS U = 0.0057761428803093760
k=4 : RMS U = 0.0029070237990799530
k=5 : RMS U = 0.0014630504643037324
k=6 : RMS U = 0.00073632581665872190
k=7 : RMS U = 0.00037057895241739483
k=8 : RMS U = 0.00018650542583186810
k=9 : RMS U = 9.3864677517016690e-05
k=10 : RMS U = 4.7240329042606890e-05
k=11 : RMS U = 2.3775170240152950e-05
k=12 : RMS U = 1.1965596603487778e-05
k=13 : RMS U = 6.0220599967909860e-06
k=14 : RMS U = 3.0307896925692677e-06
k=15 : RMS U = 1.5253395108420100e-06
k=16 : RMS U = 7.6767473387889450e-07
k=17 : RMS U = 3.8635626374947923e-07
k=18 : RMS U = 1.9444585432654678e-07
k=19 : RMS U = 9.7860942499366040e-08
k=20 : RMS U = 4.9251574949580625e-08
k=21 : RMS U = 2.4787401652849136e-08
k=22 : RMS U = 1.2475028201777867e-08
k=23 : RMS U = 6.2784471594409990e-09
k=24 : RMS U = 3.1598218036194538e-09
k=25 : RMS U = 1.5902840669815077e-09
The simulation has converged in 26 iterations
|Bench| Time (s): 4.998293 
result samples:
u[0] = -1.1920951671438927e-07 
u[419430] = 0.044999924824735230 
u[838860] = 0.079999935436795440 
u[1258290] = 0.10499994630079647 
u[1677720] = 0.11999995391834647 
u[2097150] = 0.12499996426193023 
u[2516580] = 0.11999998521222201 
u[2936010] = 0.10500001951243966 
u[3355440] = 0.080000072351419630 
u[3774870] = 0.045000144025146564 
u[4194300] = 2.3841839751250414e-07 
case = 0 
M = 4194304 
dx = 2.3841863594499490e-07 
dt = 0.10000000000000000 
eps = 1.0000000000000000e-09 
k=0 : RMS U = 0.045419274131920110
k=1 : RMS U = 0.022806370010027978
k=2 : RMS U = 0.011477009394214020
k=3 : RMS U = 0.0057761428803093760
k=4 : RMS U = 0.0029070237990799530
k=5 : RMS U = 0.0014630504643037324
k=6 : RMS U = 0.00073632581665872190
k=7 : RMS U = 0.00037057895241739483
k=8 : RMS U = 0.00018650542583186810
k=9 : RMS U = 9.3864677517016690e-05
k=10 : RMS U = 4.7240329042606890e-05
k=11 : RMS U = 2.3775170240152950e-05
k=12 : RMS U = 1.1965596603487778e-05
k=13 : RMS U = 6.0220599967909860e-06
k=14 : RMS U = 3.0307896925692677e-06
k=15 : RMS U = 1.5253395108420100e-06
k=16 : RMS U = 7.6767473387889450e-07
k=17 : RMS U = 3.8635626374947923e-07
k=18 : RMS U = 1.9444585432654678e-07
k=19 : RMS U = 9.7860942499366040e-08
k=20 : RMS U = 4.9251574949580625e-08
k=21 : RMS U = 2.4787401652849136e-08
k=22 : RMS U = 1.2475028201777867e-08
k=23 : RMS U = 6.2784471594409990e-09
k=24 : RMS U = 3.1598218036194538e-09
k=25 : RMS U = 1.5902840669815077e-09
The simulation has converged in 26 iterations
|Bench| Time (s): 4.547715 
result samples:
u[0] = -1.1920951671438927e-07 
u[419430] = 0.044999924824735230 
u[838860] = 0.079999935436795440 
u[1258290] = 0.10499994630079647 
u[1677720] = 0.11999995391834647 
u[2097150] = 0.12499996426193023 
u[2516580] = 0.11999998521222201 
u[2936010] = 0.10500001951243966 
u[3355440] = 0.080000072351419630 
u[3774870] = 0.045000144025146564 
u[4194300] = 2.3841839751250414e-07 
case = 0 
M = 4194304 
dx = 2.3841863594499490e-07 
dt = 0.10000000000000000 
eps = 1.0000000000000000e-09 
k=0 : RMS U = 0.045419274131920110
k=1 : RMS U = 0.022806370010027978
k=2 : RMS U = 0.011477009394214020
k=3 : RMS U = 0.0057761428803093760
k=4 : RMS U = 0.0029070237990799530
k=5 : RMS U = 0.0014630504643037324
k=6 : RMS U = 0.00073632581665872190
k=7 : RMS U = 0.00037057895241739483
k=8 : RMS U = 0.00018650542583186810
k=9 : RMS U = 9.3864677517016690e-05
k=10 : RMS U = 4.7240329042606890e-05
k=11 : RMS U = 2.3775170240152950e-05
k=12 : RMS U = 1.1965596603487778e-05
k=13 : RMS U = 6.0220599967909860e-06
k=14 : RMS U = 3.0307896925692677e-06
k=15 : RMS U = 1.5253395108420100e-06
k=16 : RMS U = 7.6767473387889450e-07
k=17 : RMS U = 3.8635626374947923e-07
k=18 : RMS U = 1.9444585432654678e-07
k=19 : RMS U = 9.7860942499366040e-08
k=20 : RMS U = 4.9251574949580625e-08
k=21 : RMS U = 2.4787401652849136e-08
k=22 : RMS U = 1.2475028201777867e-08
k=23 : RMS U = 6.2784471594409990e-09
k=24 : RMS U = 3.1598218036194538e-09
k=25 : RMS U = 1.5902840669815077e-09
The simulation has converged in 26 iterations
|Bench| Time (s): 4.804965 
result samples:
u[0] = -1.1920951671438927e-07 
u[419430] = 0.044999924824735230 
u[838860] = 0.079999935436795440 
u[1258290] = 0.10499994630079647 
u[1677720] = 0.11999995391834647 
u[2097150] = 0.12499996426193023 
u[2516580] = 0.11999998521222201 
u[2936010] = 0.10500001951243966 
u[3355440] = 0.080000072351419630 
u[3774870] = 0.045000144025146564 
u[4194300] = 2.3841839751250414e-07 
case = 0 
M = 4194304 
dx = 2.3841863594499490e-07 
dt = 0.10000000000000000 
eps = 1.0000000000000000e-09 
k=0 : RMS U = 0.045419274131920110
k=1 : RMS U = 0.022806370010027978
k=2 : RMS U = 0.011477009394214020
k=3 : RMS U = 0.0057761428803093760
k=4 : RMS U = 0.0029070237990799530
k=5 : RMS U = 0.0014630504643037324
k=6 : RMS U = 0.00073632581665872190
k=7 : RMS U = 0.00037057895241739483
k=8 : RMS U = 0.00018650542583186810
k=9 : RMS U = 9.3864677517016690e-05
k=10 : RMS U = 4.7240329042606890e-05
k=11 : RMS U = 2.3775170240152950e-05
k=12 : RMS U = 1.1965596603487778e-05
k=13 : RMS U = 6.0220599967909860e-06
k=14 : RMS U = 3.0307896925692677e-06
k=15 : RMS U = 1.5253395108420100e-06
k=16 : RMS U = 7.6767473387889450e-07
k=17 : RMS U = 3.8635626374947923e-07
k=18 : RMS U = 1.9444585432654678e-07
k=19 : RMS U = 9.7860942499366040e-08
k=20 : RMS U = 4.9251574949580625e-08
k=21 : RMS U = 2.4787401652849136e-08
k=22 : RMS U = 1.2475028201777867e-08
k=23 : RMS U = 6.2784471594409990e-09
k=24 : RMS U = 3.1598218036194538e-09
k=25 : RMS U = 1.5902840669815077e-09
The simulation has converged in 26 iterations
|Bench| Time (s): 4.526390 
result samples:
u[0] = -1.1920951671438927e-07 
u[419430] = 0.044999924824735230 
u[838860] = 0.079999935436795440 
u[1258290] = 0.10499994630079647 
u[1677720] = 0.11999995391834647 
u[2097150] = 0.12499996426193023 
u[2516580] = 0.11999998521222201 
u[2936010] = 0.10500001951243966 
u[3355440] = 0.080000072351419630 
u[3774870] = 0.045000144025146564 
u[4194300] = 2.3841839751250414e-07 
case = 0 
M = 4194304 
dx = 2.3841863594499490e-07 
dt = 0.10000000000000000 
eps = 1.0000000000000000e-09 
k=0 : RMS U = 0.045419274131920110
k=1 : RMS U = 0.022806370010027978
k=2 : RMS U = 0.011477009394214020
k=3 : RMS U = 0.0057761428803093760
k=4 : RMS U = 0.0029070237990799530
k=5 : RMS U = 0.0014630504643037324
k=6 : RMS U = 0.00073632581665872190
k=7 : RMS U = 0.00037057895241739483
k=8 : RMS U = 0.00018650542583186810
k=9 : RMS U = 9.3864677517016690e-05
k=10 : RMS U = 4.7240329042606890e-05
k=11 : RMS U = 2.3775170240152950e-05
k=12 : RMS U = 1.1965596603487778e-05
k=13 : RMS U = 6.0220599967909860e-06
k=14 : RMS U = 3.0307896925692677e-06
k=15 : RMS U = 1.5253395108420100e-06
k=16 : RMS U = 7.6767473387889450e-07
k=17 : RMS U = 3.8635626374947923e-07
k=18 : RMS U = 1.9444585432654678e-07
k=19 : RMS U = 9.7860942499366040e-08
k=20 : RMS U = 4.9251574949580625e-08
k=21 : RMS U = 2.4787401652849136e-08
k=22 : RMS U = 1.2475028201777867e-08
k=23 : RMS U = 6.2784471594409990e-09
k=24 : RMS U = 3.1598218036194538e-09
k=25 : RMS U = 1.5902840669815077e-09
The simulation has converged in 26 iterations
|Bench| Time (s): 4.864702 
result samples:
u[0] = -1.1920951671438927e-07 
u[419430] = 0.044999924824735230 
u[838860] = 0.079999935436795440 
u[1258290] = 0.10499994630079647 
u[1677720] = 0.11999995391834647 
u[2097150] = 0.12499996426193023 
u[2516580] = 0.11999998521222201 
u[2936010] = 0.10500001951243966 
u[3355440] = 0.080000072351419630 
u[3774870] = 0.045000144025146564 
u[4194300] = 2.3841839751250414e-07 
case = 0 
M = 4194304 
dx = 2.3841863594499490e-07 
dt = 0.10000000000000000 
eps = 1.0000000000000000e-09 
k=0 : RMS U = 0.045419274131920110
k=1 : RMS U = 0.022806370010027978
k=2 : RMS U = 0.011477009394214020
k=3 : RMS U = 0.0057761428803093760
k=4 : RMS U = 0.0029070237990799530
k=5 : RMS U = 0.0014630504643037324
k=6 : RMS U = 0.00073632581665872190
k=7 : RMS U = 0.00037057895241739483
k=8 : RMS U = 0.00018650542583186810
k=9 : RMS U = 9.3864677517016690e-05
k=10 : RMS U = 4.7240329042606890e-05
k=11 : RMS U = 2.3775170240152950e-05
k=12 : RMS U = 1.1965596603487778e-05
k=13 : RMS U = 6.0220599967909860e-06
k=14 : RMS U = 3.0307896925692677e-06
k=15 : RMS U = 1.5253395108420100e-06
k=16 : RMS U = 7.6767473387889450e-07
k=17 : RMS U = 3.8635626374947923e-07
k=18 : RMS U = 1.9444585432654678e-07
k=19 : RMS U = 9.7860942499366040e-08
k=20 : RMS U = 4.9251574949580625e-08
k=21 : RMS U = 2.4787401652849136e-08
k=22 : RMS U = 1.2475028201777867e-08
k=23 : RMS U = 6.2784471594409990e-09
k=24 : RMS U = 3.1598218036194538e-09
k=25 : RMS U = 1.5902840669815077e-09
The simulation has converged in 26 iterations
|Bench| Time (s): 4.522143 
result samples:
u[0] = -1.1920951671438927e-07 
u[419430] = 0.044999924824735230 
u[838860] = 0.079999935436795440 
u[1258290] = 0.10499994630079647 
u[1677720] = 0.11999995391834647 
u[2097150] = 0.12499996426193023 
u[2516580] = 0.11999998521222201 
u[2936010] = 0.10500001951243966 
u[3355440] = 0.080000072351419630 
u[3774870] = 0.045000144025146564 
u[4194300] = 2.3841839751250414e-07 
case = 0 
M = 4194304 
dx = 2.3841863594499490e-07 
dt = 0.10000000000000000 
eps = 1.0000000000000000e-09 
k=0 : RMS U = 0.045419274131920110
k=1 : RMS U = 0.022806370010027978
k=2 : RMS U = 0.011477009394214020
k=3 : RMS U = 0.0057761428803093760
k=4 : RMS U = 0.0029070237990799530
k=5 : RMS U = 0.0014630504643037324
k=6 : RMS U = 0.00073632581665872190
k=7 : RMS U = 0.00037057895241739483
k=8 : RMS U = 0.00018650542583186810
k=9 : RMS U = 9.3864677517016690e-05
k=10 : RMS U = 4.7240329042606890e-05
k=11 : RMS U = 2.3775170240152950e-05
k=12 : RMS U = 1.1965596603487778e-05
k=13 : RMS U = 6.0220599967909860e-06
k=14 : RMS U = 3.0307896925692677e-06
k=15 : RMS U = 1.5253395108420100e-06
k=16 : RMS U = 7.6767473387889450e-07
k=17 : RMS U = 3.8635626374947923e-07
k=18 : RMS U = 1.9444585432654678e-07
k=19 : RMS U = 9.7860942499366040e-08
k=20 : RMS U = 4.9251574949580625e-08
k=21 : RMS U = 2.4787401652849136e-08
k=22 : RMS U = 1.2475028201777867e-08
k=23 : RMS U = 6.2784471594409990e-09
k=24 : RMS U = 3.1598218036194538e-09
k=25 : RMS U = 1.5902840669815077e-09
The simulation has converged in 26 iterations
|Bench| Time (s): 4.809615 
result samples:
u[0] = -1.1920951671438927e-07 
u[419430] = 0.044999924824735230 
u[838860] = 0.079999935436795440 
u[1258290] = 0.10499994630079647 
u[1677720] = 0.11999995391834647 
u[2097150] = 0.12499996426193023 
u[2516580] = 0.11999998521222201 
u[2936010] = 0.10500001951243966 
u[3355440] = 0.080000072351419630 
u[3774870] = 0.045000144025146564 
u[4194300] = 2.3841839751250414e-07 
case = 0 
M = 4194304 
dx = 2.3841863594499490e-07 
dt = 0.10000000000000000 
eps = 1.0000000000000000e-09 
k=0 : RMS U = 0.045419274131920110
k=1 : RMS U = 0.022806370010027978
k=2 : RMS U = 0.011477009394214020
k=3 : RMS U = 0.0057761428803093760
k=4 : RMS U = 0.0029070237990799530
k=5 : RMS U = 0.0014630504643037324
k=6 : RMS U = 0.00073632581665872190
k=7 : RMS U = 0.00037057895241739483
k=8 : RMS U = 0.00018650542583186810
k=9 : RMS U = 9.3864677517016690e-05
k=10 : RMS U = 4.7240329042606890e-05
k=11 : RMS U = 2.3775170240152950e-05
k=12 : RMS U = 1.1965596603487778e-05
k=13 : RMS U = 6.0220599967909860e-06
k=14 : RMS U = 3.0307896925692677e-06
k=15 : RMS U = 1.5253395108420100e-06
k=16 : RMS U = 7.6767473387889450e-07
k=17 : RMS U = 3.8635626374947923e-07
k=18 : RMS U = 1.9444585432654678e-07
k=19 : RMS U = 9.7860942499366040e-08
k=20 : RMS U = 4.9251574949580625e-08
k=21 : RMS U = 2.4787401652849136e-08
k=22 : RMS U = 1.2475028201777867e-08
k=23 : RMS U = 6.2784471594409990e-09
k=24 : RMS U = 3.1598218036194538e-09
k=25 : RMS U = 1.5902840669815077e-09
The simulation has converged in 26 iterations
|Bench| Time (s): 4.512423 
result samples:
u[0] = -1.1920951671438927e-07 
u[419430] = 0.044999924824735230 
u[838860] = 0.079999935436795440 
u[1258290] = 0.10499994630079647 
u[1677720] = 0.11999995391834647 
u[2097150] = 0.12499996426193023 
u[2516580] = 0.11999998521222201 
u[2936010] = 0.10500001951243966 
u[3355440] = 0.080000072351419630 
u[3774870] = 0.045000144025146564 
u[4194300] = 2.3841839751250414e-07 
case = 0 
M = 4194304 
dx = 2.3841863594499490e-07 
dt = 0.10000000000000000 
eps = 1.0000000000000000e-09 
k=0 : RMS U = 0.045419274131920110
k=1 : RMS U = 0.022806370010027978
k=2 : RMS U = 0.011477009394214020
k=3 : RMS U = 0.0057761428803093760
k=4 : RMS U = 0.0029070237990799530
k=5 : RMS U = 0.0014630504643037324
k=6 : RMS U = 0.00073632581665872190
k=7 : RMS U = 0.00037057895241739483
k=8 : RMS U = 0.00018650542583186810
k=9 : RMS U = 9.3864677517016690e-05
k=10 : RMS U = 4.7240329042606890e-05
k=11 : RMS U = 2.3775170240152950e-05
k=12 : RMS U = 1.1965596603487778e-05
k=13 : RMS U = 6.0220599967909860e-06
k=14 : RMS U = 3.0307896925692677e-06
k=15 : RMS U = 1.5253395108420100e-06
k=16 : RMS U = 7.6767473387889450e-07
k=17 : RMS U = 3.8635626374947923e-07
k=18 : RMS U = 1.9444585432654678e-07
k=19 : RMS U = 9.7860942499366040e-08
k=20 : RMS U = 4.9251574949580625e-08
k=21 : RMS U = 2.4787401652849136e-08
k=22 : RMS U = 1.2475028201777867e-08
k=23 : RMS U = 6.2784471594409990e-09
k=24 : RMS U = 3.1598218036194538e-09
k=25 : RMS U = 1.5902840669815077e-09
The simulation has converged in 26 iterations
|Bench| Time (s): 4.878530 
result samples:
u[0] = -1.1920951671438927e-07 
u[419430] = 0.044999924824735230 
u[838860] = 0.079999935436795440 
u[1258290] = 0.10499994630079647 
u[1677720] = 0.11999995391834647 
u[2097150] = 0.12499996426193023 
u[2516580] = 0.11999998521222201 
u[2936010] = 0.10500001951243966 
u[3355440] = 0.080000072351419630 
u[3774870] = 0.045000144025146564 
u[4194300] = 2.3841839751250414e-07 
|Bench| BENCHMARK Stop: 1641755367 
