|Bench| WARMUP 100 iterations [len = 65536]---
|Bench| WARMUP Start: 1641508562 
|Bench| WARMUP WARMUP Stop: 1641508569 
|Bench| BENCHMARK 10 iterations [4194304]---
|Bench| BENCHMARK Start: 1641508572 
case = 0 
M = 4194304 
dx = 2.3841863594499491e-07 
dt = 0.10000000000000001 
eps = 1.0000000000000001e-09 
k=0 : RMS U = 0.04541926478723219
k=1 : RMS U = 0.022806361316238311
k=2 : RMS U = 0.011477003016861213
k=3 : RMS U = 0.0057761386632287004
k=4 : RMS U = 0.0029070211696674919
k=5 : RMS U = 0.0014630488857763474
k=6 : RMS U = 0.00073632489379214339
k=7 : RMS U = 0.00037057842332831011
k=8 : RMS U = 0.00018650512700793277
k=9 : RMS U = 9.3864510746704581e-05
k=10 : RMS U = 4.7240236875311285e-05
k=11 : RMS U = 2.3775119717391259e-05
k=12 : RMS U = 1.196556907425126e-05
k=13 : RMS U = 6.0220451089914426e-06
k=14 : RMS U = 3.0307816589013523e-06
k=15 : RMS U = 1.5253352114818865e-06
k=16 : RMS U = 7.6767242432253003e-07
k=17 : RMS U = 3.8635504330820511e-07
k=18 : RMS U = 1.9444520617153688e-07
k=19 : RMS U = 9.7860595097863201e-08
k=20 : RMS U = 4.9251391258264572e-08
k=21 : RMS U = 2.4787293891460715e-08
k=22 : RMS U = 1.2474983185689677e-08
k=23 : RMS U = 6.2784268220559195e-09
k=24 : RMS U = 3.1598094302718734e-09
k=25 : RMS U = 1.5902743872009892e-09
The simulation has converged in 26 iterations
|Bench| Time (s): 5.027760 
result samples:
u[0] = -1.1920935848380488e-07 
u[419430] = 0.044999868939941554 
u[838860] = 0.079999869471083035 
u[1258290] = 0.1049998801877777 
u[1677720] = 0.1199998978431686 
u[2097150] = 0.12499992344290904 
u[2516580] = 0.11999995926374021 
u[2936010] = 0.10500000458298418 
u[3355440] = 0.080000064501955084 
u[3774870] = 0.045000142599126706 
u[4194300] = 2.3841841247628583e-07 
case = 0 
M = 4194304 
dx = 2.3841863594499491e-07 
dt = 0.10000000000000001 
eps = 1.0000000000000001e-09 
k=0 : RMS U = 0.04541926478723219
k=1 : RMS U = 0.022806361316238311
k=2 : RMS U = 0.011477003016861213
k=3 : RMS U = 0.0057761386632287004
k=4 : RMS U = 0.0029070211696674919
k=5 : RMS U = 0.0014630488857763474
k=6 : RMS U = 0.00073632489379214339
k=7 : RMS U = 0.00037057842332831011
k=8 : RMS U = 0.00018650512700793277
k=9 : RMS U = 9.3864510746704581e-05
k=10 : RMS U = 4.7240236875311285e-05
k=11 : RMS U = 2.3775119717391259e-05
k=12 : RMS U = 1.196556907425126e-05
k=13 : RMS U = 6.0220451089914426e-06
k=14 : RMS U = 3.0307816589013523e-06
k=15 : RMS U = 1.5253352114818865e-06
k=16 : RMS U = 7.6767242432253003e-07
k=17 : RMS U = 3.8635504330820511e-07
k=18 : RMS U = 1.9444520617153688e-07
k=19 : RMS U = 9.7860595097863201e-08
k=20 : RMS U = 4.9251391258264572e-08
k=21 : RMS U = 2.4787293891460715e-08
k=22 : RMS U = 1.2474983185689677e-08
k=23 : RMS U = 6.2784268220559195e-09
k=24 : RMS U = 3.1598094302718734e-09
k=25 : RMS U = 1.5902743872009892e-09
The simulation has converged in 26 iterations
|Bench| Time (s): 5.059005 
result samples:
u[0] = -1.1920935848380488e-07 
u[419430] = 0.044999868939941554 
u[838860] = 0.079999869471083035 
u[1258290] = 0.1049998801877777 
u[1677720] = 0.1199998978431686 
u[2097150] = 0.12499992344290904 
u[2516580] = 0.11999995926374021 
u[2936010] = 0.10500000458298418 
u[3355440] = 0.080000064501955084 
u[3774870] = 0.045000142599126706 
u[4194300] = 2.3841841247628583e-07 
case = 0 
M = 4194304 
dx = 2.3841863594499491e-07 
dt = 0.10000000000000001 
eps = 1.0000000000000001e-09 
k=0 : RMS U = 0.04541926478723219
k=1 : RMS U = 0.022806361316238311
k=2 : RMS U = 0.011477003016861213
k=3 : RMS U = 0.0057761386632287004
k=4 : RMS U = 0.0029070211696674919
k=5 : RMS U = 0.0014630488857763474
k=6 : RMS U = 0.00073632489379214339
k=7 : RMS U = 0.00037057842332831011
k=8 : RMS U = 0.00018650512700793277
k=9 : RMS U = 9.3864510746704581e-05
k=10 : RMS U = 4.7240236875311285e-05
k=11 : RMS U = 2.3775119717391259e-05
k=12 : RMS U = 1.196556907425126e-05
k=13 : RMS U = 6.0220451089914426e-06
k=14 : RMS U = 3.0307816589013523e-06
k=15 : RMS U = 1.5253352114818865e-06
k=16 : RMS U = 7.6767242432253003e-07
k=17 : RMS U = 3.8635504330820511e-07
k=18 : RMS U = 1.9444520617153688e-07
k=19 : RMS U = 9.7860595097863201e-08
k=20 : RMS U = 4.9251391258264572e-08
k=21 : RMS U = 2.4787293891460715e-08
k=22 : RMS U = 1.2474983185689677e-08
k=23 : RMS U = 6.2784268220559195e-09
k=24 : RMS U = 3.1598094302718734e-09
k=25 : RMS U = 1.5902743872009892e-09
The simulation has converged in 26 iterations
|Bench| Time (s): 4.761561 
result samples:
u[0] = -1.1920935848380488e-07 
u[419430] = 0.044999868939941554 
u[838860] = 0.079999869471083035 
u[1258290] = 0.1049998801877777 
u[1677720] = 0.1199998978431686 
u[2097150] = 0.12499992344290904 
u[2516580] = 0.11999995926374021 
u[2936010] = 0.10500000458298418 
u[3355440] = 0.080000064501955084 
u[3774870] = 0.045000142599126706 
u[4194300] = 2.3841841247628583e-07 
case = 0 
M = 4194304 
dx = 2.3841863594499491e-07 
dt = 0.10000000000000001 
eps = 1.0000000000000001e-09 
k=0 : RMS U = 0.04541926478723219
k=1 : RMS U = 0.022806361316238311
k=2 : RMS U = 0.011477003016861213
k=3 : RMS U = 0.0057761386632287004
k=4 : RMS U = 0.0029070211696674919
k=5 : RMS U = 0.0014630488857763474
k=6 : RMS U = 0.00073632489379214339
k=7 : RMS U = 0.00037057842332831011
k=8 : RMS U = 0.00018650512700793277
k=9 : RMS U = 9.3864510746704581e-05
k=10 : RMS U = 4.7240236875311285e-05
k=11 : RMS U = 2.3775119717391259e-05
k=12 : RMS U = 1.196556907425126e-05
k=13 : RMS U = 6.0220451089914426e-06
k=14 : RMS U = 3.0307816589013523e-06
k=15 : RMS U = 1.5253352114818865e-06
k=16 : RMS U = 7.6767242432253003e-07
k=17 : RMS U = 3.8635504330820511e-07
k=18 : RMS U = 1.9444520617153688e-07
k=19 : RMS U = 9.7860595097863201e-08
k=20 : RMS U = 4.9251391258264572e-08
k=21 : RMS U = 2.4787293891460715e-08
k=22 : RMS U = 1.2474983185689677e-08
k=23 : RMS U = 6.2784268220559195e-09
k=24 : RMS U = 3.1598094302718734e-09
k=25 : RMS U = 1.5902743872009892e-09
The simulation has converged in 26 iterations
|Bench| Time (s): 4.888468 
result samples:
u[0] = -1.1920935848380488e-07 
u[419430] = 0.044999868939941554 
u[838860] = 0.079999869471083035 
u[1258290] = 0.1049998801877777 
u[1677720] = 0.1199998978431686 
u[2097150] = 0.12499992344290904 
u[2516580] = 0.11999995926374021 
u[2936010] = 0.10500000458298418 
u[3355440] = 0.080000064501955084 
u[3774870] = 0.045000142599126706 
u[4194300] = 2.3841841247628583e-07 
case = 0 
M = 4194304 
dx = 2.3841863594499491e-07 
dt = 0.10000000000000001 
eps = 1.0000000000000001e-09 
k=0 : RMS U = 0.04541926478723219
k=1 : RMS U = 0.022806361316238311
k=2 : RMS U = 0.011477003016861213
k=3 : RMS U = 0.0057761386632287004
k=4 : RMS U = 0.0029070211696674919
k=5 : RMS U = 0.0014630488857763474
k=6 : RMS U = 0.00073632489379214339
k=7 : RMS U = 0.00037057842332831011
k=8 : RMS U = 0.00018650512700793277
k=9 : RMS U = 9.3864510746704581e-05
k=10 : RMS U = 4.7240236875311285e-05
k=11 : RMS U = 2.3775119717391259e-05
k=12 : RMS U = 1.196556907425126e-05
k=13 : RMS U = 6.0220451089914426e-06
k=14 : RMS U = 3.0307816589013523e-06
k=15 : RMS U = 1.5253352114818865e-06
k=16 : RMS U = 7.6767242432253003e-07
k=17 : RMS U = 3.8635504330820511e-07
k=18 : RMS U = 1.9444520617153688e-07
k=19 : RMS U = 9.7860595097863201e-08
k=20 : RMS U = 4.9251391258264572e-08
k=21 : RMS U = 2.4787293891460715e-08
k=22 : RMS U = 1.2474983185689677e-08
k=23 : RMS U = 6.2784268220559195e-09
k=24 : RMS U = 3.1598094302718734e-09
k=25 : RMS U = 1.5902743872009892e-09
The simulation has converged in 26 iterations
|Bench| Time (s): 5.075557 
result samples:
u[0] = -1.1920935848380488e-07 
u[419430] = 0.044999868939941554 
u[838860] = 0.079999869471083035 
u[1258290] = 0.1049998801877777 
u[1677720] = 0.1199998978431686 
u[2097150] = 0.12499992344290904 
u[2516580] = 0.11999995926374021 
u[2936010] = 0.10500000458298418 
u[3355440] = 0.080000064501955084 
u[3774870] = 0.045000142599126706 
u[4194300] = 2.3841841247628583e-07 
case = 0 
M = 4194304 
dx = 2.3841863594499491e-07 
dt = 0.10000000000000001 
eps = 1.0000000000000001e-09 
k=0 : RMS U = 0.04541926478723219
k=1 : RMS U = 0.022806361316238311
k=2 : RMS U = 0.011477003016861213
k=3 : RMS U = 0.0057761386632287004
k=4 : RMS U = 0.0029070211696674919
k=5 : RMS U = 0.0014630488857763474
k=6 : RMS U = 0.00073632489379214339
k=7 : RMS U = 0.00037057842332831011
k=8 : RMS U = 0.00018650512700793277
k=9 : RMS U = 9.3864510746704581e-05
k=10 : RMS U = 4.7240236875311285e-05
k=11 : RMS U = 2.3775119717391259e-05
k=12 : RMS U = 1.196556907425126e-05
k=13 : RMS U = 6.0220451089914426e-06
k=14 : RMS U = 3.0307816589013523e-06
k=15 : RMS U = 1.5253352114818865e-06
k=16 : RMS U = 7.6767242432253003e-07
k=17 : RMS U = 3.8635504330820511e-07
k=18 : RMS U = 1.9444520617153688e-07
k=19 : RMS U = 9.7860595097863201e-08
k=20 : RMS U = 4.9251391258264572e-08
k=21 : RMS U = 2.4787293891460715e-08
k=22 : RMS U = 1.2474983185689677e-08
k=23 : RMS U = 6.2784268220559195e-09
k=24 : RMS U = 3.1598094302718734e-09
k=25 : RMS U = 1.5902743872009892e-09
The simulation has converged in 26 iterations
|Bench| Time (s): 5.168021 
result samples:
u[0] = -1.1920935848380488e-07 
u[419430] = 0.044999868939941554 
u[838860] = 0.079999869471083035 
u[1258290] = 0.1049998801877777 
u[1677720] = 0.1199998978431686 
u[2097150] = 0.12499992344290904 
u[2516580] = 0.11999995926374021 
u[2936010] = 0.10500000458298418 
u[3355440] = 0.080000064501955084 
u[3774870] = 0.045000142599126706 
u[4194300] = 2.3841841247628583e-07 
case = 0 
M = 4194304 
dx = 2.3841863594499491e-07 
dt = 0.10000000000000001 
eps = 1.0000000000000001e-09 
k=0 : RMS U = 0.04541926478723219
k=1 : RMS U = 0.022806361316238311
k=2 : RMS U = 0.011477003016861213
k=3 : RMS U = 0.0057761386632287004
k=4 : RMS U = 0.0029070211696674919
k=5 : RMS U = 0.0014630488857763474
k=6 : RMS U = 0.00073632489379214339
k=7 : RMS U = 0.00037057842332831011
k=8 : RMS U = 0.00018650512700793277
k=9 : RMS U = 9.3864510746704581e-05
k=10 : RMS U = 4.7240236875311285e-05
k=11 : RMS U = 2.3775119717391259e-05
k=12 : RMS U = 1.196556907425126e-05
k=13 : RMS U = 6.0220451089914426e-06
k=14 : RMS U = 3.0307816589013523e-06
k=15 : RMS U = 1.5253352114818865e-06
k=16 : RMS U = 7.6767242432253003e-07
k=17 : RMS U = 3.8635504330820511e-07
k=18 : RMS U = 1.9444520617153688e-07
k=19 : RMS U = 9.7860595097863201e-08
k=20 : RMS U = 4.9251391258264572e-08
k=21 : RMS U = 2.4787293891460715e-08
k=22 : RMS U = 1.2474983185689677e-08
k=23 : RMS U = 6.2784268220559195e-09
k=24 : RMS U = 3.1598094302718734e-09
k=25 : RMS U = 1.5902743872009892e-09
The simulation has converged in 26 iterations
|Bench| Time (s): 5.204143 
result samples:
u[0] = -1.1920935848380488e-07 
u[419430] = 0.044999868939941554 
u[838860] = 0.079999869471083035 
u[1258290] = 0.1049998801877777 
u[1677720] = 0.1199998978431686 
u[2097150] = 0.12499992344290904 
u[2516580] = 0.11999995926374021 
u[2936010] = 0.10500000458298418 
u[3355440] = 0.080000064501955084 
u[3774870] = 0.045000142599126706 
u[4194300] = 2.3841841247628583e-07 
case = 0 
M = 4194304 
dx = 2.3841863594499491e-07 
dt = 0.10000000000000001 
eps = 1.0000000000000001e-09 
k=0 : RMS U = 0.04541926478723219
k=1 : RMS U = 0.022806361316238311
k=2 : RMS U = 0.011477003016861213
k=3 : RMS U = 0.0057761386632287004
k=4 : RMS U = 0.0029070211696674919
k=5 : RMS U = 0.0014630488857763474
k=6 : RMS U = 0.00073632489379214339
k=7 : RMS U = 0.00037057842332831011
k=8 : RMS U = 0.00018650512700793277
k=9 : RMS U = 9.3864510746704581e-05
k=10 : RMS U = 4.7240236875311285e-05
k=11 : RMS U = 2.3775119717391259e-05
k=12 : RMS U = 1.196556907425126e-05
k=13 : RMS U = 6.0220451089914426e-06
k=14 : RMS U = 3.0307816589013523e-06
k=15 : RMS U = 1.5253352114818865e-06
k=16 : RMS U = 7.6767242432253003e-07
k=17 : RMS U = 3.8635504330820511e-07
k=18 : RMS U = 1.9444520617153688e-07
k=19 : RMS U = 9.7860595097863201e-08
k=20 : RMS U = 4.9251391258264572e-08
k=21 : RMS U = 2.4787293891460715e-08
k=22 : RMS U = 1.2474983185689677e-08
k=23 : RMS U = 6.2784268220559195e-09
k=24 : RMS U = 3.1598094302718734e-09
k=25 : RMS U = 1.5902743872009892e-09
The simulation has converged in 26 iterations
|Bench| Time (s): 4.938446 
result samples:
u[0] = -1.1920935848380488e-07 
u[419430] = 0.044999868939941554 
u[838860] = 0.079999869471083035 
u[1258290] = 0.1049998801877777 
u[1677720] = 0.1199998978431686 
u[2097150] = 0.12499992344290904 
u[2516580] = 0.11999995926374021 
u[2936010] = 0.10500000458298418 
u[3355440] = 0.080000064501955084 
u[3774870] = 0.045000142599126706 
u[4194300] = 2.3841841247628583e-07 
case = 0 
M = 4194304 
dx = 2.3841863594499491e-07 
dt = 0.10000000000000001 
eps = 1.0000000000000001e-09 
k=0 : RMS U = 0.04541926478723219
k=1 : RMS U = 0.022806361316238311
k=2 : RMS U = 0.011477003016861213
k=3 : RMS U = 0.0057761386632287004
k=4 : RMS U = 0.0029070211696674919
k=5 : RMS U = 0.0014630488857763474
k=6 : RMS U = 0.00073632489379214339
k=7 : RMS U = 0.00037057842332831011
k=8 : RMS U = 0.00018650512700793277
k=9 : RMS U = 9.3864510746704581e-05
k=10 : RMS U = 4.7240236875311285e-05
k=11 : RMS U = 2.3775119717391259e-05
k=12 : RMS U = 1.196556907425126e-05
k=13 : RMS U = 6.0220451089914426e-06
k=14 : RMS U = 3.0307816589013523e-06
k=15 : RMS U = 1.5253352114818865e-06
k=16 : RMS U = 7.6767242432253003e-07
k=17 : RMS U = 3.8635504330820511e-07
k=18 : RMS U = 1.9444520617153688e-07
k=19 : RMS U = 9.7860595097863201e-08
k=20 : RMS U = 4.9251391258264572e-08
k=21 : RMS U = 2.4787293891460715e-08
k=22 : RMS U = 1.2474983185689677e-08
k=23 : RMS U = 6.2784268220559195e-09
k=24 : RMS U = 3.1598094302718734e-09
k=25 : RMS U = 1.5902743872009892e-09
The simulation has converged in 26 iterations
|Bench| Time (s): 4.955832 
result samples:
u[0] = -1.1920935848380488e-07 
u[419430] = 0.044999868939941554 
u[838860] = 0.079999869471083035 
u[1258290] = 0.1049998801877777 
u[1677720] = 0.1199998978431686 
u[2097150] = 0.12499992344290904 
u[2516580] = 0.11999995926374021 
u[2936010] = 0.10500000458298418 
u[3355440] = 0.080000064501955084 
u[3774870] = 0.045000142599126706 
u[4194300] = 2.3841841247628583e-07 
case = 0 
M = 4194304 
dx = 2.3841863594499491e-07 
dt = 0.10000000000000001 
eps = 1.0000000000000001e-09 
k=0 : RMS U = 0.04541926478723219
k=1 : RMS U = 0.022806361316238311
k=2 : RMS U = 0.011477003016861213
k=3 : RMS U = 0.0057761386632287004
k=4 : RMS U = 0.0029070211696674919
k=5 : RMS U = 0.0014630488857763474
k=6 : RMS U = 0.00073632489379214339
k=7 : RMS U = 0.00037057842332831011
k=8 : RMS U = 0.00018650512700793277
k=9 : RMS U = 9.3864510746704581e-05
k=10 : RMS U = 4.7240236875311285e-05
k=11 : RMS U = 2.3775119717391259e-05
k=12 : RMS U = 1.196556907425126e-05
k=13 : RMS U = 6.0220451089914426e-06
k=14 : RMS U = 3.0307816589013523e-06
k=15 : RMS U = 1.5253352114818865e-06
k=16 : RMS U = 7.6767242432253003e-07
k=17 : RMS U = 3.8635504330820511e-07
k=18 : RMS U = 1.9444520617153688e-07
k=19 : RMS U = 9.7860595097863201e-08
k=20 : RMS U = 4.9251391258264572e-08
k=21 : RMS U = 2.4787293891460715e-08
k=22 : RMS U = 1.2474983185689677e-08
k=23 : RMS U = 6.2784268220559195e-09
k=24 : RMS U = 3.1598094302718734e-09
k=25 : RMS U = 1.5902743872009892e-09
The simulation has converged in 26 iterations
|Bench| Time (s): 4.814162 
result samples:
u[0] = -1.1920935848380488e-07 
u[419430] = 0.044999868939941554 
u[838860] = 0.079999869471083035 
u[1258290] = 0.1049998801877777 
u[1677720] = 0.1199998978431686 
u[2097150] = 0.12499992344290904 
u[2516580] = 0.11999995926374021 
u[2936010] = 0.10500000458298418 
u[3355440] = 0.080000064501955084 
u[3774870] = 0.045000142599126706 
u[4194300] = 2.3841841247628583e-07 
|Bench| BENCHMARK Stop: 1641508622 
